…
The following table shows the mean and median of the total number of steps taken per day (the table only shows the first ten days to make it more readable).

``` r
sumdaily<- summarise(daily, Mean = mean(steps, na.rm=TRUE), Median = median(steps, na.rm=TRUE))
sumdaily
```

    ## # A tibble: 61 x 3
    ##    date        Mean Median
    ##    <fct>      <dbl>  <int>
    ##  1 2012-10-01     0      0
    ##  2 2012-10-02   126    126
    ##  3 2012-10-03 11352  11352
    ##  4 2012-10-04 12116  12116
    ##  5 2012-10-05 13294  13294
    ##  6 2012-10-06 15420  15420
    ##  7 2012-10-07 11015  11015
    ##  8 2012-10-08     0      0
    ##  9 2012-10-09 12811  12811
    ## 10 2012-10-10  9900   9900
    ## # ... with 51 more rows
…
``` r
summarise(inter, "5-min interval" = inter$interval[which.max(inter$steps)], "Maximun number of steps"= max(steps))
```

    ## # A tibble: 288 x 3
    ##    interval `5-min interval` `Maximun number of steps`
    ##    <fct>    <fct>                                <dbl>
    ##  1 0        835                                 1.72  
    ##  2 5        835                                 0.340 
    ##  3 10       835                                 0.132 
    ##  4 15       835                                 0.151 
    ##  5 20       835                                 0.0755
    ##  6 25       835                                 2.09  
    ##  7 30       835                                 0.528 
    ##  8 35       835                                 0.868 
    ##  9 40       835                                 0     
    ## 10 45       835                                 1.47  
    ## # ... with 278 more rows
…
This table shows the mean and median per day with imputed NA values.

``` r
sumdaily2<- summarise(daily2, Mean = mean(steps), Median = median(steps))
sumdaily2
```

    ## # A tibble: 61 x 3
    ##    date        Mean Median
    ##    <fct>      <dbl>  <dbl>
    ##  1 2012-10-01 10766  10766
    ##  2 2012-10-02   126    126
    ##  3 2012-10-03 11352  11352
    ##  4 2012-10-04 12116  12116
    ##  5 2012-10-05 13294  13294
    ##  6 2012-10-06 15420  15420
    ##  7 2012-10-07 11015  11015
    ##  8 2012-10-08 10766  10766
    ##  9 2012-10-09 12811  12811
    ## 10 2012-10-10  9900   9900
    ## # ... with 51 more rows
…
#Calculate the average of the 5 min interval per group
inter2<- df2%>% 
        group_by(interval, Day) %>% 
        summarise(steps = mean(steps, na.rm=TRUE))
inter2
```

    ## # A tibble: 576 x 3
    ## # Groups: interval [?]
    ##    interval Day       steps
    ##    <fct>    <fct>     <dbl>
    ##  1 0        weekday 2.25   
    ##  2 0        weekend 0.215  
    ##  3 5        weekday 0.445  
    ##  4 5        weekend 0.0425 
    ##  5 10       weekday 0.173  
    ##  6 10       weekend 0.0165 
    ##  7 15       weekday 0.198  
    ##  8 15       weekend 0.0189 
    ##  9 20       weekday 0.0990 
    ## 10 20       weekend 0.00943
    ## # ... with 566 more rows
…
